In file included from /home/boyan/simd-toolchain/include/Target/TargetBasicInfo.hh:11,
                 from /home/boyan/simd-toolchain/lib/Target/TargetCodeGenEngine.cc:17:
/home/boyan/simd-toolchain/include/Target/TargetOperationInfo.hh: In member function ‘unsigned int ES_SIMD::TargetOperationInfo::GetOpBinding(ES_SIMD::TargetOpcode_t) const’:
/home/boyan/simd-toolchain/include/Target/TargetOperationInfo.hh:57: warning: enumeral and non-enumeral type in conditional expression
