In file included from /home/boyan/simd-toolchain/lib/Target/Baseline/SimProcessor/BaselineSimProcessor.cc:6:
/home/boyan/simd-toolchain/include/Simulation/SimVectorCore.hh:671: warning: ignoring #pragma clang diagnostic
/home/boyan/simd-toolchain/include/Simulation/SimVectorCore.hh:672: warning: ignoring #pragma clang diagnostic
/home/boyan/simd-toolchain/include/Simulation/SimVectorCore.hh:690: warning: ignoring #pragma clang diagnostic
/home/boyan/simd-toolchain/include/Simulation/SimVectorCore.hh:691: warning: ignoring #pragma clang diagnostic
/home/boyan/simd-toolchain/include/Simulation/SimVectorCore.hh:737: warning: ignoring #pragma clang diagnostic
In file included from /home/boyan/simd-toolchain/include/Simulation/SimScalarCore.hh:6,
                 from /home/boyan/simd-toolchain/lib/Target/Baseline/SimProcessor/BaselineSimProcessor.cc:5:
/home/boyan/simd-toolchain/include/Utils/BitUtils.hh: In function ‘bool ES_SIMD::UnsignedImmCanFitNBits(unsigned int, int)’:
/home/boyan/simd-toolchain/include/Utils/BitUtils.hh:37: warning: comparison between signed and unsigned integer expressions
In file included from /home/boyan/simd-toolchain/include/Target/TargetBasicInfo.hh:11,
                 from /home/boyan/simd-toolchain/lib/Target/Baseline/SimProcessor/../BaselineBasicInfo.hh:6,
                 from /home/boyan/simd-toolchain/lib/Target/Baseline/SimProcessor/BaselineSimProcessor.cc:9:
/home/boyan/simd-toolchain/include/Target/TargetOperationInfo.hh: In member function ‘unsigned int ES_SIMD::TargetOperationInfo::GetOpBinding(ES_SIMD::TargetOpcode_t) const’:
/home/boyan/simd-toolchain/include/Target/TargetOperationInfo.hh:57: warning: enumeral and non-enumeral type in conditional expression
