In file included from /home/boyan/simd-toolchain/include/Target/DataDependencyGraph.hh:5,
                 from /home/boyan/simd-toolchain/lib/Target/Baseline/CodeGenEngine/BaselineJointPointAnalysis.cc:6:
/home/boyan/simd-toolchain/include/Graph/DiGraph.hh:8: warning: ignoring #pragma clang diagnostic
/home/boyan/simd-toolchain/include/Graph/DiGraph.hh:9: warning: ignoring #pragma clang diagnostic
In file included from /home/boyan/simd-toolchain/include/Target/DataDependencyGraph.hh:5,
                 from /home/boyan/simd-toolchain/lib/Target/Baseline/CodeGenEngine/BaselineJointPointAnalysis.cc:6:
/home/boyan/simd-toolchain/include/Graph/DiGraph.hh:11: warning: ignoring #pragma clang diagnostic
In file included from /home/boyan/simd-toolchain/include/Target/TargetBasicInfo.hh:11,
                 from /home/boyan/simd-toolchain/lib/Target/Baseline/CodeGenEngine/../BaselineBasicInfo.hh:6,
                 from /home/boyan/simd-toolchain/lib/Target/Baseline/CodeGenEngine/BaselineJointPointAnalysis.cc:5:
/home/boyan/simd-toolchain/include/Target/TargetOperationInfo.hh: In member function ‘unsigned int ES_SIMD::TargetOperationInfo::GetOpBinding(ES_SIMD::TargetOpcode_t) const’:
/home/boyan/simd-toolchain/include/Target/TargetOperationInfo.hh:57: warning: enumeral and non-enumeral type in conditional expression
