In file included from /home/boyan/simd-toolchain/include/Target/TargetBasicInfo.hh:11,
                 from /home/boyan/simd-toolchain/lib/Target/Baseline/CodeGenEngine/../BaselineBasicInfo.hh:6,
                 from /home/boyan/simd-toolchain/lib/Target/Baseline/CodeGenEngine/BaselineSIRTranslation.cc:3:
/home/boyan/simd-toolchain/include/Target/TargetOperationInfo.hh: In member function ‘unsigned int ES_SIMD::TargetOperationInfo::GetOpBinding(ES_SIMD::TargetOpcode_t) const’:
/home/boyan/simd-toolchain/include/Target/TargetOperationInfo.hh:57: warning: enumeral and non-enumeral type in conditional expression
